Zooplankton salinity relationships in Suisun
…
  return(data)
}

Test the conversion function

test_data<-zoop_data_mass%>%
  filter(Year==2005)%>%
  mutate(Month=month(Date))%>%
  select(SalSurf, Month, IBMR, BPUE)

sal_fix(test_data, sal_conversions)

## # A tibble: 556 x 7
##    SalSurf Month IBMR        BPUE Sal_merge Correction BPUE_adj
##      <dbl> <dbl> <chr>      <dbl> <chr>          <dbl>    <dbl>
##  1  0.0539     3 acartela    0    0.1           2.41      2.41 
##  2  0.0539     3 daphnia    35.5  0.1          -3.19     32.4  
##  3  0.0539     3 eurytem   173.   0.1           0.923   174.   
##  4  0.0539     3 othcalad  197.   0.1           0.0920  197.   
##  5  0.0539     3 othcaljuv 640.   0.1           0.970   641.   
##  6  0.0539     3 othclad     2.67 0.1          -3.27     -0.605
##  7  0.0539     3 pdiapfor  237.   0.1           1.51    238.   
##  8  0.575      4 acartela    0    0.6           1.75      1.75 
##  9  0.575      4 daphnia    42.0  0.6          -1.66     40.4  
## 10  0.575      4 eurytem   261.   0.6          -0.475   261.   
## # ... with 546 more rows
…
